RiskPaul1, 1, 5, This is a Risk 01
RiskPaul2, 2, 5, This is a Risk 02
RiskPaul3, 3, 5, This is a Risk 03
RiskPaul4, 4, 5, This is a Risk 04
RiskPaul5, 5, 5, This is a Risk 05
RiskPaul6, 5, 4, This is a Risk 06
RiskPaul7, 4, 4, This is a Risk 07
RiskPaul8, 3, 1, This is a Risk 08
RiskPaul9, 2, 2, This is a Risk 09
RiskPaul10, 1, 5, This is a Risk 10